1;12225466321692563;1122;05/06/2020;2020-05-02 09:31:43
2;135;null;2020-05-08;2020-05-02 17:28:21
3;114;pony;2020-05-01;2020-05-02 17:28:32
4;2123;complited;2020-05-03;2020-05-02 17:27:36
5;110000;yellow;2020-05-15;2020-05-02 09:34:36
6;1111;111;2020-05-15;2020-05-02 08:58:16
7;11;my name lll;2020-05-16;2020-05-02 17:27:12
8;9999;done;2020-05-30;2020-05-02 09:32:29
9;11.33.333;rrrrrrrrrrrrrrrrrrrrrrrrrrrrrrrrrrrrrrrrrrrrrr;2020-05-15;2020-05-09 01:03:40
10;1589;qqq;2020-05-01;2020-05-02 17:29:01
11;11;111;11;2020-05-06 20:16:34
12;8888888888888888;888888888888888;2020-05-20;2020-05-06 21:25:56
13;;;;2020-05-06 21:26:28
14;jk,gjk,j;gjk,jk,;2020-05-15;2020-05-07 17:32:59
15;dghngh;ghdnghnghn;2020-05-15;2020-05-07 17:37:06
16;dsfsdf;sdfsdf;sdfsdf;2020-05-09 01:02:03:
17;pasechnik;pasechnik;pasechnik;2020-05-09 01:03:05:
18;asdasd;ttttttttttttttttttttt;2020-05-28;2020-05-09 01:09:05
19;111;1111111111;2020-05-05;2020-05-10 20:53:41:
20;111;1111111111;2020-05-04;2020-05-10 20:55:38:
21;11;88888888888888888888;2020-05-04;2020-05-10 20:56:13
22;кккеккккккккккккк;екккккккккккккккккк;2020-03-04;2020-05-10 20:57:30:
